Weekly Microbiome Composition and Dietary Intake
…
plot3 %>%
  dplyr::group_by(Week, SubjectID) %>%
  dplyr::summarise(RA = sum(value))

Warning: Factor `SubjectID` contains implicit NA, consider using
`forcats::fct_explicit_na`

# A tibble: 45 x 3
# Groups:   Week [5]
    Week SubjectID    RA
   <dbl> <fct>     <dbl>
 1     1 1005       1   
 2     1 1008       1   
 3     1 1001       1   
 4     1 1003       1.00
 5     1 1013       1   
 6     1 1009       1   
 7     1 1007       1   
 8     1 1010       1   
 9     1 1002       1.00
10     1 1015       1.00
# ... with 35 more rows
…
